…
The 'unnest' function can then be used to lump the tables together in
the single dataframe.

From that point we don't need the file\_name or file\_location fields.

    data<-file_names %>% 
      mutate(file_location=str_c("Data/",file_name,sep="")) %>% 
      mutate(data_table=map(file_location,read_table)) %>% 
      unnest(data_table) %>% 
      select(-file_name,-file_location)

    data

    ## # A tibble: 4,014 x 22
    ##    `STN---`  WBAN YEARMODA  TEMP    X5  DEWP    X7   SLP    X9   STP   X11
    ##       <int> <int>    <int> <dbl> <int> <dbl> <int> <dbl> <int> <dbl> <int>
    ##  1   688160 99999 20070101  66.8    24  47.5    24  1020     7  1015     7
    ##  2   688160 99999 20070102  71.6    24  56.8    24  1016     8  1011     8
    ##  3   688160 99999 20070103  70.4    23  61.8    23  1016     8  1011     8
    ##  4   688160 99999 20070104  71.7    24  61.6    24  1015     8  1010     8
    ##  5   688160 99999 20070105  69.2    24  58.8    24  1014     8  1009     8
    ##  6   688160 99999 20070106  65.8    24  55.7    24  1017     7  1012     7
    ##  7   688160 99999 20070107  64.9    24  46.8    24  1022     8  1017     8
    ##  8   688160 99999 20070108  68.4    24  56.9    24  1020     8  1014     8
    ##  9   688160 99999 20070109  69.3    24  60.9    24  1016     8  1011     8
    ## 10   688160 99999 20070110  74.6    24  63.3    24  1011     7  1006     7
    ## # ... with 4,004 more rows, and 11 more variables: VISIB <dbl>, X13 <int>,
    ## #   WDSP <dbl>, X15 <int>, MXSPD <dbl>, GUST <dbl>, MAX <chr>, MIN <chr>,
    ## #   PRCP <chr>, SNDP <dbl>, FRSHTT <chr>
…
    clean_data<-data %>% 
      select(`STN---`,YEARMODA,TEMP,PRCP) %>% 
      rename(Station=`STN---`) %>% 
      mutate(Date=ymd(YEARMODA)) %>% 
      select(-YEARMODA) %>% 
      mutate(PRCP=str_replace(PRCP,"[ABCDEFGHI]","")) %>% 
      mutate(PRCP=as.numeric(str_replace(PRCP,"99.99","0"))) %>% 
      arrange(desc(PRCP)) %>% 
      arrange(desc(Date))

    clean_data

    ## # A tibble: 4,014 x 4
    ##    Station  TEMP  PRCP Date      
    ##      <int> <dbl> <dbl> <date>    
    ##  1  688160  66.8     0 2017-12-31
    ##  2  688160  71.3     0 2017-12-30
    ##  3  688160  71.8     0 2017-12-29
    ##  4  688160  70.8     0 2017-12-28
    ##  5  688160  66.9     0 2017-12-27
    ##  6  688160  67.1     0 2017-12-26
    ##  7  688160  64.4     0 2017-12-25
    ##  8  688160  66.4     0 2017-12-24
    ##  9  688160  67.4     0 2017-12-23
    ## 10  688160  67.5     0 2017-12-22
    ## # ... with 4,004 more rows
…
